 (0,0): Unity incremental compiler server
 (0,0): watchdog active on pid: 6756
 (0,0): [11/15/2018 08:46:54.674 ] Unity.TextMeshPro.dll: no prior compilation found in cache
 (0,0): [11/15/2018 08:46:54.687 ] Unity.TextMeshPro.dll compiling...
 (0,0): [11/15/2018 08:46:54.707 ] Unity.Properties.dll: no prior compilation found in cache
 (0,0): [11/15/2018 08:46:54.718 ] Unity.Properties.dll compiling...
 (0,0): [11/15/2018 08:46:54.946 ] Unity.Mathematics.dll: no prior compilation found in cache
 (0,0): [11/15/2018 08:46:54.958 ] Unity.Mathematics.dll compiling...
 (0,0): [11/15/2018 08:46:54.992 ] Unity.Burst.dll: no prior compilation found in cache
 (0,0): [11/15/2018 08:46:55.010 ] Unity.Burst.dll compiling...
 (0,0): [11/15/2018 08:46:55.027 ] Unity.ShaderGraph.Editor.dll: no prior compilation found in cache
 (0,0): [11/15/2018 08:46:55.095 ] Unity.ShaderGraph.Editor.dll compiling...
 (0,0): [11/15/2018 08:46:55.238 ] Unity.PackageManagerUI.Editor.dll: no prior compilation found in cache
 (0,0): [11/15/2018 08:46:55.247 ] UnityEditor.StandardEvents.dll: no prior compilation found in cache
 (0,0): [11/15/2018 08:46:55.250 ] Unity.PackageManagerUI.Editor.dll compiling...
 (0,0): [11/15/2018 08:46:55.259 ] UnityEditor.StandardEvents.dll compiling...
 (0,0): [11/15/2018 08:46:57.581 ] UnityEditor.StandardEvents.dll: emitting IL to : C:\Users\Warze\Documents\Unity\fourlor - Copie\Temp\UnityEditor.StandardEvents.dll
 (0,0): [11/15/2018 08:46:57.581 ] Unity.Burst.dll: emitting IL to : C:\Users\Warze\Documents\Unity\fourlor - Copie\Temp\Unity.Burst.dll
 (0,0): [11/15/2018 08:46:57.581 ] Unity.PackageManagerUI.Editor.dll: emitting IL to : C:\Users\Warze\Documents\Unity\fourlor - Copie\Temp\Unity.PackageManagerUI.Editor.dll
 (0,0): [11/15/2018 08:46:57.582 ] Unity.Properties.dll: emitting IL to : C:\Users\Warze\Documents\Unity\fourlor - Copie\Temp\Unity.Properties.dll
 (0,0): [11/15/2018 08:46:57.729 ] UnityEditor.StandardEvents.dll compilation finished in 2471ms  source files re-parsed: 1 metadata reloaded: 0
 (0,0): [11/15/2018 08:46:57.927 ] Unity.Properties.dll compilation finished in 3209ms  source files re-parsed: 34 metadata reloaded: 185
 (0,0): [11/15/2018 08:46:57.957 ] Unity.PackageManagerUI.Editor.dll compilation finished in 2708ms  source files re-parsed: 44 metadata reloaded: 0
 (0,0): [11/15/2018 08:46:57.778 ] Unity.TextMeshPro.dll: emitting IL to : C:\Users\Warze\Documents\Unity\fourlor - Copie\Temp\Unity.TextMeshPro.dll
 (0,0): [11/15/2018 08:46:58.044 ] Unity.Burst.dll compilation finished in 3034ms  source files re-parsed: 3 metadata reloaded: 0
 (0,0): [11/15/2018 08:46:58.103 ] Unity.TextMeshPro.dll compilation finished in 3416ms  source files re-parsed: 45 metadata reloaded: 203
 (0,0): [11/15/2018 08:46:58.239 ] Unity.ShaderGraph.Editor.dll: emitting IL to : C:\Users\Warze\Documents\Unity\fourlor - Copie\Temp\Unity.ShaderGraph.Editor.dll
 (0,0): [11/15/2018 08:46:58.276 ] Unity.ShaderGraph.Editor.dll compilation finished in 3181ms  source files re-parsed: 378 metadata reloaded: 2
 (0,0): [11/15/2018 08:46:58.654 ] Unity.Properties.Editor.dll: no prior compilation found in cache
 (0,0): [11/15/2018 08:46:58.665 ] Unity.Properties.Editor.dll compiling...
 (0,0): [11/15/2018 08:46:58.781 ] Unity.TextMeshPro.Editor.dll: no prior compilation found in cache
 (0,0): [11/15/2018 08:46:58.790 ] Unity.Properties.Editor.dll: emitting IL to : C:\Users\Warze\Documents\Unity\fourlor - Copie\Temp\Unity.Properties.Editor.dll
 (0,0): [11/15/2018 08:46:58.793 ] Unity.TextMeshPro.Editor.dll compiling...
 (0,0): [11/15/2018 08:46:58.840 ] Unity.Properties.Editor.dll compilation finished in 175ms  source files re-parsed: 23 metadata reloaded: 1
 (0,0): [11/15/2018 08:46:58.898 ] Unity.Burst.Editor.dll: no prior compilation found in cache
 (0,0): [11/15/2018 08:46:58.911 ] Unity.Burst.Editor.dll compiling...
 (0,0): [11/15/2018 08:46:59.018 ] Unity.Properties.Codegen.dll: no prior compilation found in cache
 (0,0): [11/15/2018 08:46:59.032 ] Unity.Properties.Codegen.dll compiling...
 (0,0): [11/15/2018 08:46:59.102 ] Unity.Burst.Editor.dll: emitting IL to : C:\Users\Warze\Documents\Unity\fourlor - Copie\Temp\Unity.Burst.Editor.dll
 (0,0): [11/15/2018 08:46:59.109 ] Unity.TextMeshPro.Editor.dll: emitting IL to : C:\Users\Warze\Documents\Unity\fourlor - Copie\Temp\Unity.TextMeshPro.Editor.dll
 (0,0): [11/15/2018 08:46:59.112 ] Unity.Properties.Codegen.dll: emitting IL to : C:\Users\Warze\Documents\Unity\fourlor - Copie\Temp\Unity.Properties.Codegen.dll
 (0,0): [11/15/2018 08:46:59.124 ] Unity.Burst.Editor.dll compilation finished in 213ms  source files re-parsed: 10 metadata reloaded: 1
 (0,0): [11/15/2018 08:46:59.134 ] Unity.TextMeshPro.Editor.dll compilation finished in 340ms  source files re-parsed: 39 metadata reloaded: 1
 (0,0): [11/15/2018 08:46:59.135 ] Unity.Properties.Codegen.dll compilation finished in 103ms  source files re-parsed: 7 metadata reloaded: 0
 (0,0): [11/15/2018 08:46:59.146 ] Unity.Mathematics.dll: emitting IL to : C:\Users\Warze\Documents\Unity\fourlor - Copie\Temp\Unity.Mathematics.dll
 (0,0): [11/15/2018 08:46:59.171 ] Unity.Mathematics.dll compilation finished in 4213ms  source files re-parsed: 82 metadata reloaded: 0
 (0,0): [11/15/2018 08:46:59.542 ] Unity.Collections.dll: no prior compilation found in cache
 (0,0): [11/15/2018 08:46:59.554 ] Unity.Collections.dll compiling...
 (0,0): [11/15/2018 08:46:59.625 ] Unity.Collections.dll: emitting IL to : C:\Users\Warze\Documents\Unity\fourlor - Copie\Temp\Unity.Collections.dll
 (0,0): [11/15/2018 08:46:59.638 ] Unity.Mathematics.Editor.dll: no prior compilation found in cache
 (0,0): [11/15/2018 08:46:59.646 ] Unity.Collections.dll compilation finished in 92ms  source files re-parsed: 12 metadata reloaded: 1
 (0,0): [11/15/2018 08:46:59.650 ] Unity.Mathematics.Editor.dll compiling...
 (0,0): [11/15/2018 08:46:59.704 ] Unity.Mathematics.Editor.dll: emitting IL to : C:\Users\Warze\Documents\Unity\fourlor - Copie\Temp\Unity.Mathematics.Editor.dll
 (0,0): [11/15/2018 08:46:59.726 ] Unity.Mathematics.Editor.dll compilation finished in 76ms  source files re-parsed: 4 metadata reloaded: 0
 (0,0): [11/15/2018 08:46:59.964 ] Unity.Entities.dll: no prior compilation found in cache
 (0,0): [11/15/2018 08:46:59.975 ] Unity.Entities.dll compiling...
 (0,0): [11/15/2018 08:47:00.119 ] Unity.Jobs.dll: no prior compilation found in cache
 (0,0): [11/15/2018 08:47:00.145 ] Unity.Jobs.dll compiling...
 (0,0): [11/15/2018 08:47:00.187 ] Unity.Jobs.dll: emitting IL to : C:\Users\Warze\Documents\Unity\fourlor - Copie\Temp\Unity.Jobs.dll
 (0,0): [11/15/2018 08:47:00.209 ] Unity.Collections.Tests.dll: no prior compilation found in cache
 (0,0): [11/15/2018 08:47:00.217 ] Unity.Jobs.dll compilation finished in 72ms  source files re-parsed: 3 metadata reloaded: 0
 (0,0): [11/15/2018 08:47:00.221 ] Unity.Collections.Tests.dll compiling...
 (0,0): [11/15/2018 08:47:00.245 ] Unity.Entities.dll: emitting IL to : C:\Users\Warze\Documents\Unity\fourlor - Copie\Temp\Unity.Entities.dll
 (0,0): [11/15/2018 08:47:00.278 ] Unity.Entities.dll compilation finished in 303ms  source files re-parsed: 58 metadata reloaded: 1
 (0,0): [11/15/2018 08:47:00.282 ] Unity.Collections.Tests.dll: emitting IL to : C:\Users\Warze\Documents\Unity\fourlor - Copie\Temp\Unity.Collections.Tests.dll
 (0,0): [11/15/2018 08:47:00.303 ] Unity.Collections.Tests.dll compilation finished in 82ms  source files re-parsed: 17 metadata reloaded: 3
 (0,0): [11/15/2018 08:47:00.586 ] Unity.Entities.Hybrid.dll: no prior compilation found in cache
 (0,0): [11/15/2018 08:47:00.598 ] Unity.Entities.Hybrid.dll compiling...
 (0,0): [11/15/2018 08:47:00.653 ] Unity.Entities.Hybrid.dll: emitting IL to : C:\Users\Warze\Documents\Unity\fourlor - Copie\Temp\Unity.Entities.Hybrid.dll
 (0,0): [11/15/2018 08:47:00.673 ] Unity.Entities.Hybrid.dll compilation finished in 75ms  source files re-parsed: 12 metadata reloaded: 2
 (0,0): [11/15/2018 08:47:00.677 ] Unity.Jobs.Tests.dll: no prior compilation found in cache
 (0,0): [11/15/2018 08:47:00.689 ] Unity.Jobs.Tests.dll compiling...
 (0,0): [11/15/2018 08:47:00.719 ] Unity.Jobs.Tests.dll: emitting IL to : C:\Users\Warze\Documents\Unity\fourlor - Copie\Temp\Unity.Jobs.Tests.dll
 (0,0): [11/15/2018 08:47:00.738 ] Unity.Jobs.Tests.dll compilation finished in 49ms  source files re-parsed: 2 metadata reloaded: 0
 (0,0): [11/15/2018 08:47:00.779 ] Unity.Jobs.Editor.dll: no prior compilation found in cache
 (0,0): [11/15/2018 08:47:00.791 ] Unity.Jobs.Editor.dll compiling...
 (0,0): [11/15/2018 08:47:00.821 ] Unity.Jobs.Editor.dll: emitting IL to : C:\Users\Warze\Documents\Unity\fourlor - Copie\Temp\Unity.Jobs.Editor.dll
 (0,0): [11/15/2018 08:47:00.840 ] Unity.Jobs.Editor.dll compilation finished in 50ms  source files re-parsed: 1 metadata reloaded: 0
 (0,0): [11/15/2018 08:47:00.986 ] Unity.Transforms.dll: no prior compilation found in cache
 (0,0): [11/15/2018 08:47:00.998 ] Unity.Transforms.dll compiling...
 (0,0): [11/15/2018 08:47:01.066 ] Unity.Transforms.dll: emitting IL to : C:\Users\Warze\Documents\Unity\fourlor - Copie\Temp\Unity.Transforms.dll
 (0,0): [11/15/2018 08:47:01.089 ] Unity.Transforms.dll compilation finished in 91ms  source files re-parsed: 9 metadata reloaded: 1
 (0,0): [11/15/2018 08:47:01.094 ] Unity.Entities.TestComponents.dll: no prior compilation found in cache
 (0,0): [11/15/2018 08:47:01.105 ] Unity.Entities.TestComponents.dll compiling...
 (0,0): [11/15/2018 08:47:01.149 ] Unity.Entities.TestComponents.dll: emitting IL to : C:\Users\Warze\Documents\Unity\fourlor - Copie\Temp\Unity.Entities.TestComponents.dll
 (0,0): [11/15/2018 08:47:01.168 ] Unity.Entities.TestComponents.dll compilation finished in 63ms  source files re-parsed: 2 metadata reloaded: 0
 (0,0): [11/15/2018 08:47:01.399 ] Unity.Rendering.Hybrid.dll: no prior compilation found in cache
 (0,0): [11/15/2018 08:47:01.410 ] Unity.Rendering.Hybrid.dll compiling...
 (0,0): [11/15/2018 08:47:01.474 ] Unity.Rendering.Hybrid.dll: emitting IL to : C:\Users\Warze\Documents\Unity\fourlor - Copie\Temp\Unity.Rendering.Hybrid.dll
 (0,0): [11/15/2018 08:47:01.495 ] Unity.Rendering.Hybrid.dll compilation finished in 85ms  source files re-parsed: 9 metadata reloaded: 1
 (0,0): [11/15/2018 08:47:01.505 ] Unity.Entities.Properties.dll: no prior compilation found in cache
 (0,0): [11/15/2018 08:47:01.516 ] Unity.Entities.Properties.dll compiling...
 (0,0): [11/15/2018 08:47:01.565 ] Unity.Entities.Properties.dll: emitting IL to : C:\Users\Warze\Documents\Unity\fourlor - Copie\Temp\Unity.Entities.Properties.dll
 (0,0): [11/15/2018 08:47:01.586 ] Unity.Entities.Properties.dll compilation finished in 70ms  source files re-parsed: 14 metadata reloaded: 0
 (0,0): [11/15/2018 08:47:01.598 ] Unity.Transforms.Hybrid.dll: no prior compilation found in cache
 (0,0): [11/15/2018 08:47:01.609 ] Unity.Transforms.Hybrid.dll compiling...
 (0,0): [11/15/2018 08:47:01.636 ] Unity.Transforms.Hybrid.dll: emitting IL to : C:\Users\Warze\Documents\Unity\fourlor - Copie\Temp\Unity.Transforms.Hybrid.dll
 (0,0): [11/15/2018 08:47:01.656 ] Unity.Transforms.Hybrid.dll compilation finished in 47ms  source files re-parsed: 6 metadata reloaded: 0
 (0,0): [11/15/2018 08:47:01.710 ] Unity.Entities.Tests.dll: no prior compilation found in cache
 (0,0): [11/15/2018 08:47:01.721 ] Unity.Entities.Tests.dll compiling...
 (0,0): [11/15/2018 08:47:01.908 ] Unity.Entities.Tests.dll: emitting IL to : C:\Users\Warze\Documents\Unity\fourlor - Copie\Temp\Unity.Entities.Tests.dll
 (0,0): [11/15/2018 08:47:01.931 ] Unity.Entities.Tests.dll compilation finished in 210ms  source files re-parsed: 41 metadata reloaded: 0
 (0,0): [11/15/2018 08:47:02.026 ] Unity.Entities.Editor.dll: no prior compilation found in cache
 (0,0): [11/15/2018 08:47:02.037 ] Unity.Entities.Editor.dll compiling...
 (0,0): [11/15/2018 08:47:02.144 ] Unity.Entities.Properties.Tests.dll: no prior compilation found in cache
 (0,0): [11/15/2018 08:47:02.147 ] Unity.Entities.Editor.dll: emitting IL to : C:\Users\Warze\Documents\Unity\fourlor - Copie\Temp\Unity.Entities.Editor.dll
 (0,0): [11/15/2018 08:47:02.156 ] Unity.Entities.Properties.Tests.dll compiling...
 (0,0): [11/15/2018 08:47:02.174 ] Unity.Entities.Editor.dll compilation finished in 137ms  source files re-parsed: 23 metadata reloaded: 1
 (0,0): [11/15/2018 08:47:02.193 ] Unity.Entities.Properties.Tests.dll: emitting IL to : C:\Users\Warze\Documents\Unity\fourlor - Copie\Temp\Unity.Entities.Properties.Tests.dll
 (0,0): [11/15/2018 08:47:02.213 ] Unity.Entities.Properties.Tests.dll compilation finished in 56ms  source files re-parsed: 2 metadata reloaded: 0
 (0,0): [11/15/2018 08:47:02.285 ] Unity.Entities.Hybrid.Tests.dll: no prior compilation found in cache
 (0,0): [11/15/2018 08:47:02.296 ] Unity.Entities.Hybrid.Tests.dll compiling...
 (0,0): [11/15/2018 08:47:02.342 ] Unity.Entities.Hybrid.Tests.dll: emitting IL to : C:\Users\Warze\Documents\Unity\fourlor - Copie\Temp\Unity.Entities.Hybrid.Tests.dll
 (0,0): [11/15/2018 08:47:02.366 ] Unity.Transforms.Tests.dll: no prior compilation found in cache
 (0,0): [11/15/2018 08:47:02.367 ] Unity.Entities.Hybrid.Tests.dll compilation finished in 71ms  source files re-parsed: 8 metadata reloaded: 2
 (0,0): [11/15/2018 08:47:02.377 ] Unity.Transforms.Tests.dll compiling...
 (0,0): [11/15/2018 08:47:02.426 ] Unity.Transforms.Tests.dll: emitting IL to : C:\Users\Warze\Documents\Unity\fourlor - Copie\Temp\Unity.Transforms.Tests.dll
 (0,0): [11/15/2018 08:47:02.447 ] Unity.Transforms.Tests.dll compilation finished in 70ms  source files re-parsed: 1 metadata reloaded: 0
 (0,0): [11/15/2018 08:47:02.465 ] Unity.Entities.Editor.Tests.dll: no prior compilation found in cache
 (0,0): [11/15/2018 08:47:02.476 ] Unity.Entities.Editor.Tests.dll compiling...
 (0,0): [11/15/2018 08:47:02.511 ] Unity.Entities.Editor.Tests.dll: emitting IL to : C:\Users\Warze\Documents\Unity\fourlor - Copie\Temp\Unity.Entities.Editor.Tests.dll
 (0,0): [11/15/2018 08:47:02.532 ] Unity.Entities.Editor.Tests.dll compilation finished in 56ms  source files re-parsed: 4 metadata reloaded: 1
 (0,0): [11/15/2018 08:47:02.573 ] Unity.Transforms.Editor.dll: no prior compilation found in cache
 (0,0): [11/15/2018 08:47:02.585 ] Unity.Transforms.Editor.dll compiling...
 (0,0): [11/15/2018 08:47:02.612 ] Unity.Transforms.Editor.dll: emitting IL to : C:\Users\Warze\Documents\Unity\fourlor - Copie\Temp\Unity.Transforms.Editor.dll
 (0,0): [11/15/2018 08:47:02.632 ] Unity.Transforms.Editor.dll compilation finished in 47ms  source files re-parsed: 1 metadata reloaded: 1
 (0,0): [11/15/2018 08:47:03.074 ] Assembly-CSharp-firstpass.dll: no prior compilation found in cache
 (0,0): [11/15/2018 08:47:03.085 ] Assembly-CSharp-firstpass.dll compiling...
 (0,0): [11/15/2018 08:47:03.179 ] Assembly-CSharp-firstpass.dll: emitting IL to : C:\Users\Warze\Documents\Unity\fourlor - Copie\Temp\Assembly-CSharp-firstpass.dll
 (0,0): [11/15/2018 08:47:03.203 ] Assembly-CSharp-firstpass.dll compilation finished in 118ms  source files re-parsed: 60 metadata reloaded: 11
 (0,0): [11/15/2018 08:47:03.451 ] Assembly-CSharp.dll: no prior compilation found in cache
 (0,0): [11/15/2018 08:47:03.462 ] Assembly-CSharp.dll compiling...
 (0,0): [11/15/2018 08:47:03.566 ] Assembly-CSharp-Editor-firstpass.dll: no prior compilation found in cache
 (0,0): [11/15/2018 08:47:03.577 ] Assembly-CSharp-Editor-firstpass.dll compiling...
 (0,0): [11/15/2018 08:47:03.632 ] Assembly-CSharp.dll: emitting IL to : C:\Users\Warze\Documents\Unity\fourlor - Copie\Temp\Assembly-CSharp.dll
 (0,0): [11/15/2018 08:47:03.645 ] Assembly-CSharp-Editor-firstpass.dll: emitting IL to : C:\Users\Warze\Documents\Unity\fourlor - Copie\Temp\Assembly-CSharp-Editor-firstpass.dll
 (0,0): [11/15/2018 08:47:03.655 ] Assembly-CSharp.dll compilation finished in 193ms  source files re-parsed: 36 metadata reloaded: 1
 (0,0): [11/15/2018 08:47:03.666 ] Assembly-CSharp-Editor-firstpass.dll compilation finished in 89ms  source files re-parsed: 16 metadata reloaded: 0
 (0,0): [11/15/2018 08:47:04.109 ] Assembly-CSharp-Editor.dll: no prior compilation found in cache
 (0,0): [11/15/2018 08:47:04.121 ] Assembly-CSharp-Editor.dll compiling...
 (0,0): [11/15/2018 08:47:04.221 ] Assembly-CSharp-Editor.dll: emitting IL to : C:\Users\Warze\Documents\Unity\fourlor - Copie\Temp\Assembly-CSharp-Editor.dll
 (0,0): [11/15/2018 08:47:04.243 ] Assembly-CSharp-Editor.dll compilation finished in 122ms  source files re-parsed: 6 metadata reloaded: 2
 (0,0): [11/15/2018 08:47:19.781 ] Unity.Mathematics.dll: no prior compilation found in cache
 (0,0): [11/15/2018 08:47:19.792 ] Unity.Mathematics.dll compiling...
 (0,0): [11/15/2018 08:47:19.940 ] Unity.TextMeshPro.dll: no prior compilation found in cache
 (0,0): [11/15/2018 08:47:20.052 ] Unity.TextMeshPro.dll compiling...
 (0,0): [11/15/2018 08:47:20.155 ] Unity.Properties.dll: no prior compilation found in cache
 (0,0): [11/15/2018 08:47:20.174 ] Unity.Properties.dll compiling...
 (0,0): [11/15/2018 08:47:20.243 ] Unity.Burst.dll: no prior compilation found in cache
 (0,0): [11/15/2018 08:47:20.261 ] Unity.Burst.dll compiling...
 (0,0): [11/15/2018 08:47:20.350 ] Unity.Burst.dll: emitting IL to : C:\Users\Warze\Documents\Unity\fourlor - Copie\Temp\Unity.Burst.dll
 (0,0): [11/15/2018 08:47:20.389 ] Unity.Burst.dll compilation finished in 128ms  source files re-parsed: 3 metadata reloaded: 0
 (0,0): [11/15/2018 08:47:20.391 ] Unity.ShaderGraph.Editor.dll: no prior compilation found in cache
 (0,0): [11/15/2018 08:47:20.405 ] Unity.ShaderGraph.Editor.dll compiling...
 (0,0): [11/15/2018 08:47:20.429 ] UnityEditor.StandardEvents.dll: no prior compilation found in cache
 (0,0): [11/15/2018 08:47:20.440 ] UnityEditor.StandardEvents.dll compiling...
 (0,0): [11/15/2018 08:47:20.500 ] UnityEditor.StandardEvents.dll: emitting IL to : C:\Users\Warze\Documents\Unity\fourlor - Copie\Temp\UnityEditor.StandardEvents.dll
 (0,0): [11/15/2018 08:47:20.543 ] UnityEditor.StandardEvents.dll compilation finished in 103ms  source files re-parsed: 1 metadata reloaded: 0
 (0,0): [11/15/2018 08:47:20.547 ] Unity.PackageManagerUI.Editor.dll: no prior compilation found in cache
 (0,0): [11/15/2018 08:47:20.559 ] Unity.PackageManagerUI.Editor.dll compiling...
 (0,0): [11/15/2018 08:47:20.773 ] Unity.PackageManagerUI.Editor.dll: emitting IL to : C:\Users\Warze\Documents\Unity\fourlor - Copie\Temp\Unity.PackageManagerUI.Editor.dll
 (0,0): [11/15/2018 08:47:20.904 ] Unity.Properties.dll: emitting IL to : C:\Users\Warze\Documents\Unity\fourlor - Copie\Temp\Unity.Properties.dll
 (0,0): [11/15/2018 08:47:20.995 ] Unity.Burst.Editor.dll: no prior compilation found in cache
 (0,0): [11/15/2018 08:47:21.007 ] Unity.Burst.Editor.dll compiling...
 (0,0): [11/15/2018 08:47:21.069 ] Unity.PackageManagerUI.Editor.dll compilation finished in 509ms  source files re-parsed: 44 metadata reloaded: 0
 (0,0): [11/15/2018 08:47:21.143 ] Unity.Properties.dll compilation finished in 968ms  source files re-parsed: 34 metadata reloaded: 0
 (0,0): [11/15/2018 08:47:21.341 ] Unity.TextMeshPro.dll: emitting IL to : C:\Users\Warze\Documents\Unity\fourlor - Copie\Temp\Unity.TextMeshPro.dll
 (0,0): [11/15/2018 08:47:21.386 ] Unity.Burst.Editor.dll: emitting IL to : C:\Users\Warze\Documents\Unity\fourlor - Copie\Temp\Unity.Burst.Editor.dll
 (0,0): [11/15/2018 08:47:21.417 ] Unity.Burst.Editor.dll compilation finished in 410ms  source files re-parsed: 10 metadata reloaded: 1
 (0,0): [11/15/2018 08:47:21.427 ] Unity.TextMeshPro.dll compilation finished in 1374ms  source files re-parsed: 45 metadata reloaded: 0
 (0,0): [11/15/2018 08:47:21.694 ] Unity.Properties.Editor.dll: no prior compilation found in cache
 (0,0): [11/15/2018 08:47:21.730 ] Unity.Properties.Editor.dll compiling...
 (0,0): [11/15/2018 08:47:21.762 ] Unity.Properties.Codegen.dll: no prior compilation found in cache
 (0,0): [11/15/2018 08:47:21.782 ] Unity.Properties.Codegen.dll compiling...
 (0,0): [11/15/2018 08:47:21.824 ] Unity.TextMeshPro.Editor.dll: no prior compilation found in cache
 (0,0): [11/15/2018 08:47:21.839 ] Unity.TextMeshPro.Editor.dll compiling...
 (0,0): [11/15/2018 08:47:21.887 ] Unity.Properties.Codegen.dll: emitting IL to : C:\Users\Warze\Documents\Unity\fourlor - Copie\Temp\Unity.Properties.Codegen.dll
 (0,0): [11/15/2018 08:47:21.889 ] Unity.Properties.Editor.dll: emitting IL to : C:\Users\Warze\Documents\Unity\fourlor - Copie\Temp\Unity.Properties.Editor.dll
 (0,0): [11/15/2018 08:47:22.021 ] Unity.Properties.Editor.dll compilation finished in 291ms  source files re-parsed: 23 metadata reloaded: 1
 (0,0): [11/15/2018 08:47:22.025 ] Unity.Properties.Codegen.dll compilation finished in 243ms  source files re-parsed: 7 metadata reloaded: 0
 (0,0): [11/15/2018 08:47:22.029 ] Unity.ShaderGraph.Editor.dll: emitting IL to : C:\Users\Warze\Documents\Unity\fourlor - Copie\Temp\Unity.ShaderGraph.Editor.dll
 (0,0): [11/15/2018 08:47:22.068 ] Unity.TextMeshPro.Editor.dll: emitting IL to : C:\Users\Warze\Documents\Unity\fourlor - Copie\Temp\Unity.TextMeshPro.Editor.dll
 (0,0): [11/15/2018 08:47:22.069 ] Unity.ShaderGraph.Editor.dll compilation finished in 1663ms  source files re-parsed: 378 metadata reloaded: 0
 (0,0): [11/15/2018 08:47:22.092 ] Unity.TextMeshPro.Editor.dll compilation finished in 253ms  source files re-parsed: 39 metadata reloaded: 1
 (0,0): [11/15/2018 08:47:22.476 ] Unity.Mathematics.dll: emitting IL to : C:\Users\Warze\Documents\Unity\fourlor - Copie\Temp\Unity.Mathematics.dll
 (0,0): [11/15/2018 08:47:22.504 ] Unity.Mathematics.dll compilation finished in 2711ms  source files re-parsed: 82 metadata reloaded: 0
 (0,0): [11/15/2018 08:47:22.746 ] Unity.Collections.dll: no prior compilation found in cache
 (0,0): [11/15/2018 08:47:22.757 ] Unity.Collections.dll compiling...
 (0,0): [11/15/2018 08:47:22.817 ] Unity.Collections.dll: emitting IL to : C:\Users\Warze\Documents\Unity\fourlor - Copie\Temp\Unity.Collections.dll
 (0,0): [11/15/2018 08:47:22.844 ] Unity.Collections.dll compilation finished in 88ms  source files re-parsed: 12 metadata reloaded: 1
 (0,0): [11/15/2018 08:47:22.849 ] Unity.Mathematics.Editor.dll: no prior compilation found in cache
 (0,0): [11/15/2018 08:47:22.860 ] Unity.Mathematics.Editor.dll compiling...
 (0,0): [11/15/2018 08:47:22.896 ] Unity.Mathematics.Editor.dll: emitting IL to : C:\Users\Warze\Documents\Unity\fourlor - Copie\Temp\Unity.Mathematics.Editor.dll
 (0,0): [11/15/2018 08:47:22.923 ] Unity.Mathematics.Editor.dll compilation finished in 63ms  source files re-parsed: 4 metadata reloaded: 0
 (0,0): [11/15/2018 08:47:23.050 ] Unity.Entities.dll: no prior compilation found in cache
 (0,0): [11/15/2018 08:47:23.061 ] Unity.Entities.dll compiling...
 (0,0): [11/15/2018 08:47:23.191 ] Unity.Jobs.dll: no prior compilation found in cache
 (0,0): [11/15/2018 08:47:23.206 ] Unity.Jobs.dll compiling...
 (0,0): [11/15/2018 08:47:23.250 ] Unity.Jobs.dll: emitting IL to : C:\Users\Warze\Documents\Unity\fourlor - Copie\Temp\Unity.Jobs.dll
 (0,0): [11/15/2018 08:47:23.277 ] Unity.Collections.Tests.dll: no prior compilation found in cache
 (0,0): [11/15/2018 08:47:23.285 ] Unity.Jobs.dll compilation finished in 78ms  source files re-parsed: 3 metadata reloaded: 0
 (0,0): [11/15/2018 08:47:23.288 ] Unity.Collections.Tests.dll compiling...
 (0,0): [11/15/2018 08:47:23.296 ] Unity.Entities.dll: emitting IL to : C:\Users\Warze\Documents\Unity\fourlor - Copie\Temp\Unity.Entities.dll
 (0,0): [11/15/2018 08:47:23.346 ] Unity.Entities.dll compilation finished in 285ms  source files re-parsed: 58 metadata reloaded: 1
 (0,0): [11/15/2018 08:47:23.354 ] Unity.Collections.Tests.dll: emitting IL to : C:\Users\Warze\Documents\Unity\fourlor - Copie\Temp\Unity.Collections.Tests.dll
 (0,0): [11/15/2018 08:47:23.376 ] Unity.Collections.Tests.dll compilation finished in 88ms  source files re-parsed: 17 metadata reloaded: 0
 (0,0): [11/15/2018 08:47:23.558 ] Unity.Jobs.Tests.dll: no prior compilation found in cache
 (0,0): [11/15/2018 08:47:23.569 ] Unity.Jobs.Tests.dll compiling...
 (0,0): [11/15/2018 08:47:23.608 ] Unity.Jobs.Tests.dll: emitting IL to : C:\Users\Warze\Documents\Unity\fourlor - Copie\Temp\Unity.Jobs.Tests.dll
 (0,0): [11/15/2018 08:47:23.627 ] Unity.Jobs.Tests.dll compilation finished in 58ms  source files re-parsed: 2 metadata reloaded: 1
 (0,0): [11/15/2018 08:47:23.655 ] Unity.Jobs.Editor.dll: no prior compilation found in cache
 (0,0): [11/15/2018 08:47:23.666 ] Unity.Jobs.Editor.dll compiling...
 (0,0): [11/15/2018 08:47:23.691 ] Unity.Jobs.Editor.dll: emitting IL to : C:\Users\Warze\Documents\Unity\fourlor - Copie\Temp\Unity.Jobs.Editor.dll
 (0,0): [11/15/2018 08:47:23.709 ] Unity.Jobs.Editor.dll compilation finished in 43ms  source files re-parsed: 1 metadata reloaded: 0
 (0,0): [11/15/2018 08:47:23.769 ] Unity.Entities.Hybrid.dll: no prior compilation found in cache
 (0,0): [11/15/2018 08:47:23.781 ] Unity.Entities.Hybrid.dll compiling...
 (0,0): [11/15/2018 08:47:23.820 ] Unity.Entities.Hybrid.dll: emitting IL to : C:\Users\Warze\Documents\Unity\fourlor - Copie\Temp\Unity.Entities.Hybrid.dll
 (0,0): [11/15/2018 08:47:23.840 ] Unity.Entities.Hybrid.dll compilation finished in 59ms  source files re-parsed: 12 metadata reloaded: 1
 (0,0): [11/15/2018 08:47:24.067 ] Unity.Transforms.dll: no prior compilation found in cache
 (0,0): [11/15/2018 08:47:24.079 ] Unity.Transforms.dll compiling...
 (0,0): [11/15/2018 08:47:24.136 ] Unity.Transforms.dll: emitting IL to : C:\Users\Warze\Documents\Unity\fourlor - Copie\Temp\Unity.Transforms.dll
 (0,0): [11/15/2018 08:47:24.170 ] Unity.Transforms.dll compilation finished in 91ms  source files re-parsed: 9 metadata reloaded: 1
 (0,0): [11/15/2018 08:47:24.179 ] Unity.Entities.TestComponents.dll: no prior compilation found in cache
 (0,0): [11/15/2018 08:47:24.190 ] Unity.Entities.TestComponents.dll compiling...
 (0,0): [11/15/2018 08:47:24.214 ] Unity.Entities.TestComponents.dll: emitting IL to : C:\Users\Warze\Documents\Unity\fourlor - Copie\Temp\Unity.Entities.TestComponents.dll
 (0,0): [11/15/2018 08:47:24.233 ] Unity.Entities.TestComponents.dll compilation finished in 43ms  source files re-parsed: 2 metadata reloaded: 0
 (0,0): [11/15/2018 08:47:24.486 ] Unity.Rendering.Hybrid.dll: no prior compilation found in cache
 (0,0): [11/15/2018 08:47:24.498 ] Unity.Rendering.Hybrid.dll compiling...
 (0,0): [11/15/2018 08:47:24.547 ] Unity.Rendering.Hybrid.dll: emitting IL to : C:\Users\Warze\Documents\Unity\fourlor - Copie\Temp\Unity.Rendering.Hybrid.dll
 (0,0): [11/15/2018 08:47:24.575 ] Unity.Rendering.Hybrid.dll compilation finished in 77ms  source files re-parsed: 9 metadata reloaded: 1
 (0,0): [11/15/2018 08:47:24.592 ] Unity.Entities.Properties.dll: no prior compilation found in cache
 (0,0): [11/15/2018 08:47:24.604 ] Unity.Entities.Properties.dll compiling...
 (0,0): [11/15/2018 08:47:24.641 ] Unity.Entities.Properties.dll: emitting IL to : C:\Users\Warze\Documents\Unity\fourlor - Copie\Temp\Unity.Entities.Properties.dll
 (0,0): [11/15/2018 08:47:24.663 ] Unity.Entities.Properties.dll compilation finished in 59ms  source files re-parsed: 14 metadata reloaded: 0
 (0,0): [11/15/2018 08:47:24.690 ] Unity.Entities.Tests.dll: no prior compilation found in cache
 (0,0): [11/15/2018 08:47:24.701 ] Unity.Entities.Tests.dll compiling...
 (0,0): [11/15/2018 08:47:24.848 ] Unity.Transforms.Hybrid.dll: no prior compilation found in cache
 (0,0): [11/15/2018 08:47:24.859 ] Unity.Entities.Tests.dll: emitting IL to : C:\Users\Warze\Documents\Unity\fourlor - Copie\Temp\Unity.Entities.Tests.dll
 (0,0): [11/15/2018 08:47:24.860 ] Unity.Transforms.Hybrid.dll compiling...
 (0,0): [11/15/2018 08:47:24.904 ] Unity.Entities.Tests.dll compilation finished in 203ms  source files re-parsed: 41 metadata reloaded: 0
 (0,0): [11/15/2018 08:47:24.916 ] Unity.Transforms.Hybrid.dll: emitting IL to : C:\Users\Warze\Documents\Unity\fourlor - Copie\Temp\Unity.Transforms.Hybrid.dll
 (0,0): [11/15/2018 08:47:24.940 ] Unity.Transforms.Hybrid.dll compilation finished in 80ms  source files re-parsed: 6 metadata reloaded: 0
 (0,0): [11/15/2018 08:47:24.964 ] Unity.Entities.Editor.dll: no prior compilation found in cache
 (0,0): [11/15/2018 08:47:24.975 ] Unity.Entities.Editor.dll compiling...
 (0,0): [11/15/2018 08:47:25.078 ] Unity.Entities.Properties.Tests.dll: no prior compilation found in cache
 (0,0): [11/15/2018 08:47:25.082 ] Unity.Entities.Editor.dll: emitting IL to : C:\Users\Warze\Documents\Unity\fourlor - Copie\Temp\Unity.Entities.Editor.dll
 (0,0): [11/15/2018 08:47:25.089 ] Unity.Entities.Properties.Tests.dll compiling...
 (0,0): [11/15/2018 08:47:25.105 ] Unity.Entities.Editor.dll compilation finished in 130ms  source files re-parsed: 23 metadata reloaded: 1
 (0,0): [11/15/2018 08:47:25.121 ] Unity.Entities.Properties.Tests.dll: emitting IL to : C:\Users\Warze\Documents\Unity\fourlor - Copie\Temp\Unity.Entities.Properties.Tests.dll
 (0,0): [11/15/2018 08:47:25.143 ] Unity.Entities.Properties.Tests.dll compilation finished in 54ms  source files re-parsed: 2 metadata reloaded: 0
 (0,0): [11/15/2018 08:47:25.157 ] Unity.Entities.Hybrid.Tests.dll: no prior compilation found in cache
 (0,0): [11/15/2018 08:47:25.168 ] Unity.Entities.Hybrid.Tests.dll compiling...
 (0,0): [11/15/2018 08:47:25.214 ] Unity.Entities.Hybrid.Tests.dll: emitting IL to : C:\Users\Warze\Documents\Unity\fourlor - Copie\Temp\Unity.Entities.Hybrid.Tests.dll
 (0,0): [11/15/2018 08:47:25.237 ] Unity.Entities.Hybrid.Tests.dll compilation finished in 69ms  source files re-parsed: 8 metadata reloaded: 2
 (0,0): [11/15/2018 08:47:25.262 ] Unity.Transforms.Tests.dll: no prior compilation found in cache
 (0,0): [11/15/2018 08:47:25.274 ] Unity.Transforms.Tests.dll compiling...
 (0,0): [11/15/2018 08:47:25.322 ] Unity.Transforms.Tests.dll: emitting IL to : C:\Users\Warze\Documents\Unity\fourlor - Copie\Temp\Unity.Transforms.Tests.dll
 (0,0): [11/15/2018 08:47:25.343 ] Unity.Transforms.Tests.dll compilation finished in 69ms  source files re-parsed: 1 metadata reloaded: 0
 (0,0): [11/15/2018 08:47:25.367 ] Unity.Entities.Editor.Tests.dll: no prior compilation found in cache
 (0,0): [11/15/2018 08:47:25.379 ] Unity.Entities.Editor.Tests.dll compiling...
 (0,0): [11/15/2018 08:47:25.412 ] Unity.Entities.Editor.Tests.dll: emitting IL to : C:\Users\Warze\Documents\Unity\fourlor - Copie\Temp\Unity.Entities.Editor.Tests.dll
 (0,0): [11/15/2018 08:47:25.433 ] Unity.Entities.Editor.Tests.dll compilation finished in 54ms  source files re-parsed: 4 metadata reloaded: 1
 (0,0): [11/15/2018 08:47:25.458 ] Unity.Transforms.Editor.dll: no prior compilation found in cache
 (0,0): [11/15/2018 08:47:25.469 ] Unity.Transforms.Editor.dll compiling...
 (0,0): [11/15/2018 08:47:25.497 ] Unity.Transforms.Editor.dll: emitting IL to : C:\Users\Warze\Documents\Unity\fourlor - Copie\Temp\Unity.Transforms.Editor.dll
 (0,0): [11/15/2018 08:47:25.517 ] Unity.Transforms.Editor.dll compilation finished in 47ms  source files re-parsed: 1 metadata reloaded: 1
 (0,0): [11/15/2018 08:47:25.794 ] Assembly-CSharp-firstpass.dll: no prior compilation found in cache
 (0,0): [11/15/2018 08:47:25.806 ] Assembly-CSharp-firstpass.dll compiling...
 (0,0): [11/15/2018 08:47:25.891 ] Assembly-CSharp-firstpass.dll: emitting IL to : C:\Users\Warze\Documents\Unity\fourlor - Copie\Temp\Assembly-CSharp-firstpass.dll
 (0,0): [11/15/2018 08:47:25.913 ] Assembly-CSharp-firstpass.dll compilation finished in 107ms  source files re-parsed: 60 metadata reloaded: 11
 (0,0): [11/15/2018 08:47:26.165 ] Assembly-CSharp.dll: no prior compilation found in cache
 (0,0): [11/15/2018 08:47:26.176 ] Assembly-CSharp.dll compiling...
 (0,0): [11/15/2018 08:47:26.281 ] Assembly-CSharp-Editor-firstpass.dll: no prior compilation found in cache
 (0,0): [11/15/2018 08:47:26.298 ] Assembly-CSharp-Editor-firstpass.dll compiling...
 (0,0): [11/15/2018 08:47:26.306 ] Assembly-CSharp.dll: emitting IL to : C:\Users\Warze\Documents\Unity\fourlor - Copie\Temp\Assembly-CSharp.dll
 (0,0): [11/15/2018 08:47:26.330 ] Assembly-CSharp.dll compilation finished in 154ms  source files re-parsed: 36 metadata reloaded: 1
 (0,0): [11/15/2018 08:47:26.343 ] Assembly-CSharp-Editor-firstpass.dll: emitting IL to : C:\Users\Warze\Documents\Unity\fourlor - Copie\Temp\Assembly-CSharp-Editor-firstpass.dll
 (0,0): [11/15/2018 08:47:26.375 ] Assembly-CSharp-Editor-firstpass.dll compilation finished in 77ms  source files re-parsed: 16 metadata reloaded: 0
 (0,0): [11/15/2018 08:47:26.624 ] Assembly-CSharp-Editor.dll: no prior compilation found in cache
 (0,0): [11/15/2018 08:47:26.635 ] Assembly-CSharp-Editor.dll compiling...
 (0,0): [11/15/2018 08:47:26.725 ] Assembly-CSharp-Editor.dll: emitting IL to : C:\Users\Warze\Documents\Unity\fourlor - Copie\Temp\Assembly-CSharp-Editor.dll
 (0,0): [11/15/2018 08:47:26.752 ] Assembly-CSharp-Editor.dll compilation finished in 117ms  source files re-parsed: 6 metadata reloaded: 2
 (0,0): [11/15/2018 08:49:54.649 ] Assembly-CSharp.dll: no prior compilation found in cache
 (0,0): [11/15/2018 08:49:54.661 ] Assembly-CSharp.dll compiling...
 (0,0): [11/15/2018 08:49:54.745 ] Assembly-CSharp.dll: emitting IL to : C:\Users\Warze\Documents\Unity\fourlor - Copie\Temp\Assembly-CSharp.dll
 (0,0): [11/15/2018 08:49:54.767 ] Assembly-CSharp.dll compilation finished in 106ms  source files re-parsed: 36 metadata reloaded: 0
 (0,0): [11/15/2018 08:49:55.187 ] Assembly-CSharp-Editor.dll compiling...
 (0,0): [11/15/2018 08:49:55.265 ] Assembly-CSharp-Editor.dll: emitting IL to : C:\Users\Warze\Documents\Unity\fourlor - Copie\Temp\Assembly-CSharp-Editor.dll
 (0,0): [11/15/2018 08:49:55.288 ] Assembly-CSharp-Editor.dll compilation finished in 100ms  source files re-parsed: 0 metadata reloaded: 1
 (0,0): [11/15/2018 08:49:55.299 ] Assembly-CSharp-Editor.dll: compilation was cached, 0 file(s) were found to have changed.
 (0,0): [11/15/2018 08:50:26.957 ] Assembly-CSharp.dll compiling...
 (0,0): [11/15/2018 08:50:27.056 ] Assembly-CSharp.dll: emitting IL to : C:\Users\Warze\Documents\Unity\fourlor - Copie\Temp\Assembly-CSharp.dll
 (0,0): [11/15/2018 08:50:27.079 ] Assembly-CSharp.dll compilation finished in 121ms  source files re-parsed: 1 metadata reloaded: 0
 (0,0): [11/15/2018 08:50:27.090 ] Assembly-CSharp.dll: compilation was cached, 1 file(s) were found to have changed.
 (0,0): [11/15/2018 08:50:27.527 ] Assembly-CSharp-Editor.dll compiling...
 (0,0): [11/15/2018 08:50:27.602 ] Assembly-CSharp-Editor.dll: emitting IL to : C:\Users\Warze\Documents\Unity\fourlor - Copie\Temp\Assembly-CSharp-Editor.dll
 (0,0): [11/15/2018 08:50:27.624 ] Assembly-CSharp-Editor.dll compilation finished in 96ms  source files re-parsed: 0 metadata reloaded: 1
 (0,0): [11/15/2018 08:50:27.635 ] Assembly-CSharp-Editor.dll: compilation was cached, 0 file(s) were found to have changed.
 (0,0): [11/15/2018 08:51:37.851 ] Compiler cache size is now 20,37 MB
 (0,0): [11/15/2018 08:52:14.674 ] Assembly-CSharp.dll compiling...
 (0,0): [11/15/2018 08:52:14.759 ] Assembly-CSharp.dll: emitting IL to : C:\Users\Warze\Documents\Unity\fourlor - Copie\Temp\Assembly-CSharp.dll
 (0,0): [11/15/2018 08:52:14.781 ] Assembly-CSharp.dll compilation finished in 107ms  source files re-parsed: 2 metadata reloaded: 0
 (0,0): [11/15/2018 08:52:14.793 ] Assembly-CSharp.dll: compilation was cached, 2 file(s) were found to have changed.
 (0,0): [11/15/2018 08:52:15.229 ] Assembly-CSharp-Editor.dll compiling...
 (0,0): [11/15/2018 08:52:15.303 ] Assembly-CSharp-Editor.dll: emitting IL to : C:\Users\Warze\Documents\Unity\fourlor - Copie\Temp\Assembly-CSharp-Editor.dll
 (0,0): [11/15/2018 08:52:15.326 ] Assembly-CSharp-Editor.dll compilation finished in 97ms  source files re-parsed: 0 metadata reloaded: 1
 (0,0): [11/15/2018 08:52:15.337 ] Assembly-CSharp-Editor.dll: compilation was cached, 0 file(s) were found to have changed.
 (0,0): watchdog triggered an exit
