%YAML 1.1
%TAG !u! tag:unity3d.com,2011:
--- !u!114 &11400000
MonoBehaviour:
  m_ObjectHideFlags: 0
  m_CorrespondingSourceObject: {fileID: 0}
  m_PrefabInternal: {fileID: 0}
  m_GameObject: {fileID: 0}
  m_Enabled: 1
  m_EditorHideFlags: 0
  m_Script: {fileID: 11500000, guid: 3b26aca4556e1a24f8d43ab06c7f43ca, type: 3}
  m_Name: GrayMode
  m_EditorClassIdentifier: 
  AllDetail: []
  ThisType: 2
  CurrIndex: 0
